Chapter 3 Data Abstraction | Introduction to R for GIS
…
LETTERS

##  [1] "A" "B" "C" "D" "E" "F" "G" "H" "I" "J" "K" "L" "M" "N" "O" "P" "Q" "R" "S"
## [20] "T" "U" "V" "W" "X" "Y" "Z"

… then make a tibble of letters, LETTERS, and two random sets of 26 values, one normally distributed, the other uniform:

norm <- rnorm(26)
unif <- runif(26)
library(tidyverse)
tibble26 <- tibble(letters,LETTERS,norm,unif)
tibble26

## # A tibble: 26 × 4
##    letters LETTERS    norm   unif
##    <chr>   <chr>     <dbl>  <dbl>
##  1 a       A       -1.21   0.0894
##  2 b       B        0.682  0.0967
##  3 c       C        0.907  0.763 
##  4 d       D        0.807  0.665 
##  5 e       E       -1.63   0.925 
##  6 f       F       -1.06   0.747 
##  7 g       G       -0.0797 0.227 
##  8 h       H       -0.359  0.956 
##  9 i       I       -1.21   0.811 
## 10 j       J       -0.493  0.832 
## # … with 16 more rows
…
3.4.6 Sorting after summarizing

Using the marine debris data from the Marine Debris Monitoring and Assessment Project (Marine Debris Program, n.d.), we can use arrange to sort by latitude, so we can see the beaches from south to north along the Pacific coast.

shorelineLatLong <- ConcentrationReport %>%
  group_by(`Shoreline Name`) %>%
  summarize(
    latitude = mean((`Latitude Start`+`Latitude End`)/2),
    longitude = mean((`Longitude Start`+`Longitude End`)/2)
  ) %>%
  arrange(latitude)
shorelineLatLong

## # A tibble: 38 × 3
##    `Shoreline Name`   latitude longitude
##    <chr>                 <dbl>     <dbl>
##  1 Aimee Arvidson         33.6     -118.
##  2 Balboa Pier #2         33.6     -118.
##  3 Bolsa Chica            33.7     -118.
##  4 Junipero Beach         33.8     -118.
##  5 Malaga Cove            33.8     -118.
##  6 Zuma Beach, Malibu     34.0     -119.
##  7 Zuma Beach             34.0     -119.
##  8 Will Rodgers           34.0     -119.
##  9 Carbon Beach           34.0     -119.
## 10 Nicholas Canyon        34.0     -119.
## # … with 28 more rows
…
