Chapter 2 Introduction to R | Introduction to R for GIS
…
FIGURE 2.4: Diagram of penguin head with indication of bill length and bill depth (from Horst, Hill, and Gorman (2020), used with permission)

Then we can simply display the table with the method:

penguins

## # A tibble: 344 × 8
##    species island    bill_length_mm bill_depth_mm flipper_…¹ body_…² sex    year
##    <fct>   <fct>              <dbl>         <dbl>      <int>   <int> <fct> <int>
##  1 Adelie  Torgersen           39.1          18.7        181    3750 male   2007
##  2 Adelie  Torgersen           39.5          17.4        186    3800 fema…  2007
##  3 Adelie  Torgersen           40.3          18          195    3250 fema…  2007
##  4 Adelie  Torgersen           NA            NA           NA      NA <NA>   2007
##  5 Adelie  Torgersen           36.7          19.3        193    3450 fema…  2007
##  6 Adelie  Torgersen           39.3          20.6        190    3650 male   2007
##  7 Adelie  Torgersen           38.9          17.8        181    3625 fema…  2007
##  8 Adelie  Torgersen           39.2          19.6        195    4675 male   2007
##  9 Adelie  Torgersen           34.1          18.1        193    3475 <NA>   2007
## 10 Adelie  Torgersen           42            20.2        190    4250 <NA>   2007
## # … with 334 more rows, and abbreviated variable names ¹​flipper_length_mm,
## #   ²​body_mass_g
…
DT::datatable(TRI2017, options=list(scrollX=T))

FIGURE 2.6: TRI dataframe – DT datatable output

Note that we could have used the built-in read.csv function, but as you’ll see later, there are advantages of readr::read_csv so we should get in the habit of using that instead.

2.6.4.3 Reorganizing data frames

There are quite a few ways to reorganize your data in R, and we’ll learn other methods in the next chapter where we start using the tidyverse, which makes data abstraction and transformation much easier. For now, we’ll work with a simpler CSV I’ve prepared:

csvPath <- system.file("extdata","TRI/TRI_1987_BaySites.csv", package="igisci")
TRI87 <- read_csv(csvPath)
TRI87

## # A tibble: 335 × 9
##    TRI_FACILITY_ID count FACILI…¹ COUNTY air_r…² fugit…³ stack…⁴ LATIT…⁵ LONGI…⁶
##    <chr>           <dbl> <chr>    <chr>    <dbl>   <dbl>   <dbl>   <dbl>   <dbl>
##  1 91002FRMND585BR     2 FORUM I… SAN M…    1423    1423       0    37.5   -122.
##  2 92052ZPMNF2970C     1 ZEP MFG… SANTA…     337     337       0    37.4   -122.
##  3 93117TLDYN3165P     2 TELEDYN… SANTA…   12600   12600       0    37.4   -122.
##  4 94002GTWSG477HA     2 MORGAN … SAN M…   18700   18700       0    37.5   -122.
##  5 94002SMPRD120SE     2 SEM PRO… SAN M…    1500     500    1000    37.5   -122.
##  6 94025HBLNN151CO     2 HEUBLEI… SAN M…     500       0     500    37.5   -122.
##  7 94025RYCHM300CO    10 TE CONN… SAN M…  144871   47562   97309    37.5   -122.
##  8 94025SNFRD990OB     1 SANFORD… SAN M…    9675    9675       0    37.5   -122.
##  9 94026BYPCK3575H     2 BAY PAC… SAN M…   80000   32000   48000    37.5   -122.
## 10 94026CDRSY3475E     2 CDR SYS… SAN M…  126800       0  126800    37.5   -122.
## # … with 325 more rows, and abbreviated variable names ¹​FACILITY_NAME,
## #   ²​air_releases, ³​fugitive_air, ⁴​stack_air, ⁵​LATITUDE, ⁶​LONGITUDE
…
